{
    "KPlugin": {
        "Authors": [
            {
                "Name": "Miha Čančula",
                "Name[ca@valencia]": "Miha Čančula",
                "Name[ca]": "Miha Čančula",
                "Name[cs]": "Miha Čančula",
                "Name[da]": "Miha Čančula",
                "Name[de]": "Miha Čančula",
                "Name[el]": "Miha Čančula",
                "Name[en_GB]": "Miha Čančula",
                "Name[es]": "Miha Čančula",
                "Name[et]": "Miha Čančula",
                "Name[eu]": "Miha Čančula",
                "Name[fi]": "Miha Čančula",
                "Name[fr]": "Miha Čančula",
                "Name[gl]": "Miha Čančula",
                "Name[hu]": "Miha Čančula",
                "Name[it]": "Miha Čančula",
                "Name[ko]": "Miha Čančula",
                "Name[nl]": "Miha Čančula",
                "Name[nn]": "Miha Čančula",
                "Name[pl]": "Miha Čančula",
                "Name[pt]": "Miha Čančula",
                "Name[pt_BR]": "Miha Čančula",
                "Name[ru]": "Miha Čančula",
                "Name[sk]": "Miha Čančula",
                "Name[sl]": "Miha Čančula",
                "Name[sv]": "Miha Čančula",
                "Name[uk]": "Miha Čančula",
                "Name[x-test]": "xxMiha Čančulaxx",
                "Name[zh_CN]": "Miha Čančula",
                "Name[zh_TW]": "Miha Čančula"
            }
        ],
        "Category": "Testing",
        "Description": "Finds and runs PHPUnit tests.",
        "Description[ca@valencia]": "Busca i executa les proves de PHPUnit.",
        "Description[ca]": "Cerca i executa les proves del PHPUnit.",
        "Description[cs]": "Hledá a spouští testy PHPUnit.",
        "Description[da]": "Finder og kører PHPUnit-test.",
        "Description[de]": "Sucht und führt PHPUnit-Tests aus.",
        "Description[el]": "Βρίσκει και εκτελεί PHPUnit tests.",
        "Description[en_GB]": "Finds and runs PHPUnit tests.",
        "Description[es]": "Encuentra y ejecuta pruebas PHPUnit.",
        "Description[et]": "PHPUnit'i testide otsimine ja käivitamine.",
        "Description[eu]": "«PHPUnit» probak aurkitu eta exekutatzen ditu.",
        "Description[fi]": "Etsii ja suorittaa PHPUnit-testejä.",
        "Description[fr]": "Trouve et exécute des tests « PHPUnit ».",
        "Description[gl]": "Atopa e executa probas de PHPUnit.",
        "Description[hu]": "PHPUnit tesztek keresése és futtatása.",
        "Description[it]": "Trova ed esegue i test PHPUnit",
        "Description[ko]": "PHPUnit 테스트를 찾아서 실행합니다.",
        "Description[nl]": "Testen van PHPUnit vinden en uitvoeren.",
        "Description[nn]": "Finn og køyr PHPUnit-testar.",
        "Description[pl]": "Znajduje i uruchamia testy PHPUnit.",
        "Description[pt]": "Procura e executa os testes do PHPUnit.",
        "Description[pt_BR]": "Procura e executa os testes do PHPUnit.",
        "Description[ru]": "Находит и запускает тесты PHPUnit",
        "Description[sk]": "Nájde a spustí PHPUnit testy.",
        "Description[sl]": "Najde in zažene preizkuse PHPUnit.",
        "Description[sv]": "Söker efter och kör PHPUnit-tester.",
        "Description[uk]": "Знаходить і запускає перевірки PHPUnit.",
        "Description[x-test]": "xxFinds and runs PHPUnit tests.xx",
        "Description[zh_CN]": "查找并运行 PHPUnit 测试",
        "Description[zh_TW]": "搜尋並執行 PHPUnit 單元測試。",
        "Icon": "application-x-php",
        "Id": "kdevphpunitprovider",
        "License": "GPL",
        "Name": "PHPUnit Integration",
        "Name[ca@valencia]": "Integració de PHPUnit",
        "Name[ca]": "Integració del PHPUnit",
        "Name[cs]": "Integrace PHPUnit",
        "Name[da]": "PHPUnit-integration",
        "Name[de]": "PHPUnit-Integration",
        "Name[el]": "Ενσωμάτωση PHPUnit",
        "Name[en_GB]": "PHPUnit Integration",
        "Name[es]": "Integración de PHPUnit",
        "Name[et]": "PHPUniti lõimimine",
        "Name[eu]": "«PHPUnit»en integrazioa",
        "Name[fi]": "PHPUnit-integrointi",
        "Name[fr]": "Intégration de « PHPUnit »",
        "Name[gl]": "Integración con PHPUnit",
        "Name[hu]": "PHPUnit integráció",
        "Name[it]": "Integrazione PHPUnit",
        "Name[ko]": "PHPUnit 통합",
        "Name[nl]": "Integratie van PHPUnit",
        "Name[nn]": "PHPUnit-integrering",
        "Name[pl]": "Integracja PHPUnit",
        "Name[pt]": "Integração com o PHPUnit",
        "Name[pt_BR]": "Integração com o PHPUnit",
        "Name[ru]": "Интеграция PHPUnit",
        "Name[sk]": "Integrácia PHPUnit",
        "Name[sl]": "Podpora PHPUnit",
        "Name[sv]": "Integrering av PHPUnit",
        "Name[uk]": "Інтеграція з PHPUnit",
        "Name[x-test]": "xxPHPUnit Integrationxx",
        "Name[zh_CN]": "PHPUnit 集成",
        "Name[zh_TW]": "PHPUnit 整合",
        "ServiceTypes": [
            "KDevelop/Plugin"
        ]
    },
    "X-KDevelop-Category": "Global",
    "X-KDevelop-IRequired": [
        "org.kdevelop.PHPSupport"
    ],
    "X-KDevelop-Interfaces": [
        "org.kdevelop.ITestProvider"
    ],
    "X-KDevelop-Mode": "GUI"
}
